{
  "name": "scheduled-notifications",
  "url": "",
  "license": "MIT",
  "tags": [],
  "description": "",
  "version": "1.0.0",
  "releasenote": "",
  "contributors": [""],
  "dependencies": {
  }
}