{
  "name": "com.moxisgames.extensions.utils.HaxeUtils",
  "url": "",
  "license": "MIT",
  "tags": [],
  "description": "",
  "version": "1.0.0",
  "releasenote": "",
  "contributors": [""],
  "dependencies": {

  }
}